<?xml version="1.0" encoding="UTF-8" standalone="no"?>
<svg width="1757px" height="960px" viewBox="0 0 1757 960" version="1.1" xmlns="http://www.w3.org/2000/svg" xmlns:xlink="http://www.w3.org/1999/xlink">
    <!-- Generator: Sketch 39.1 (31720) - http://www.bohemiancoding.com/sketch -->
    <title>Group 5</title>
    <desc>Created with Sketch.</desc>
    <defs>
        <linearGradient x1="2.20085333%" y1="15.1627808%" x2="58.4743809%" y2="100%" id="linearGradient-1">
            <stop stop-color="#000000" stop-opacity="0.06" offset="0%"></stop>
            <stop stop-color="#000000" stop-opacity="0.02" offset="100%"></stop>
        </linearGradient>
    </defs>
    <g id="Page-1" stroke="none" stroke-width="1" fill="none" fill-rule="evenodd" fill-opacity="0.7" opacity="0.550839552">
        <g id="天气_阴-copy-2" transform="translate(-380.000000, -330.000000)" fill="url(#linearGradient-1)">
            <g id="背景" transform="translate(347.000000, 294.000000)">
                <g id="3" transform="translate(33.000000, 36.000000)">
                    <path d="M18,952 L297,903.045851 C297,903.045851 578.596277,845.554466 741.798139,665.254292 C905,484.954118 1062,631.698035 1254,541.678657 C1446,451.65928 1575.58948,546.363989 1734.79767,322.77924 C1792.79276,241.333571 1593,166 1291,157 C989,148 16,9 16,9 L18,952 Z" id="Path-14"></path>
                </g>
            </g>
        </g>
    </g>
</svg>