<?xml version="1.0" encoding="UTF-8" standalone="no"?>
<svg width="1342px" height="672px" viewBox="0 0 1342 672" version="1.1" xmlns="http://www.w3.org/2000/svg" xmlns:xlink="http://www.w3.org/1999/xlink">
    <!-- Generator: Sketch 39.1 (31720) - http://www.bohemiancoding.com/sketch -->
    <title>天气_阴 copy</title>
    <desc>Created with Sketch.</desc>
    <defs>
        <linearGradient x1="2.20085333%" y1="15.1627808%" x2="58.4743809%" y2="100%" id="linearGradient-1">
            <stop stop-color="#000000" stop-opacity="0.06" offset="0%"></stop>
            <stop stop-color="#000000" stop-opacity="0.02" offset="100%"></stop>
        </linearGradient>
    </defs>
    <g id="Page-1" stroke="none" stroke-width="1" fill="none" fill-rule="evenodd" fill-opacity="0.7" opacity="0.5">
        <g id="天气_阴-copy-2" transform="translate(-398.000000, -382.000000)" fill="url(#linearGradient-1)">
            <g id="背景" transform="translate(347.000000, 294.000000)">
                <g id="2" transform="translate(51.000000, 88.000000)">
                    <path d="M61,652 C146,652 288,665.295682 288,665.295682 C288,665.295682 467.957315,685.283679 606.747923,507.678747 C745.538532,330.073816 966.662552,384.17863 966.662552,384.17863 C966.662552,384.17863 1204.25326,428.87391 1318.34384,280.673769 C1378.15129,202.985743 1198,29 788,19 C378,9 27,15 27,15 C27,15 -24,652 61,652 Z" id="Path-14"></path>
                </g>
            </g>
        </g>
    </g>
</svg>