<?xml version="1.0" encoding="UTF-8" standalone="no"?>
<svg width="346px" height="160px" viewBox="0 0 346 160" version="1.1" xmlns="http://www.w3.org/2000/svg" xmlns:xlink="http://www.w3.org/1999/xlink">
    <!-- Generator: Sketch 39.1 (31720) - http://www.bohemiancoding.com/sketch -->
    <title>Group 4</title>
    <desc>Created with Sketch.</desc>
    <defs>
        <linearGradient x1="-6.65882253%" y1="24.5242649%" x2="82.9031611%" y2="90.7482897%" id="linearGradient-1">
            <stop stop-color="#FFFFFF" stop-opacity="0.12" offset="0%"></stop>
            <stop stop-color="#B3DBFD" stop-opacity="0.371858016" offset="43.3101441%"></stop>
            <stop stop-color="#B6DAF8" stop-opacity="0.627660779" offset="100%"></stop>
        </linearGradient>
    </defs>
    <g id="Page-1" stroke="none" stroke-width="1" fill="none" fill-rule="evenodd" opacity="0.6">
        <g id="天气_晴-copy-13" transform="translate(1.000000, 2.000000)" fill="url(#linearGradient-1)">
            <g id="Group-4" transform="translate(-804.000000, -995.000000)">
                <g id="Group-13" transform="translate(720.000000, 712.000000)">
                    <path d="M216.867676,432.867676 C336.161182,432.867676 432.867676,336.161182 432.867676,216.867676 C432.867676,97.5741699 336.161182,0.867675811 216.867676,0.867675811 C97.5741699,0.867675811 0.867675811,97.5741699 0.867675811,216.867676 C0.867675811,336.161182 97.5741699,432.867676 216.867676,432.867676 Z" id="Oval-2"></path>
                </g>
            </g>
        </g>
    </g>
</svg>