<?xml version="1.0" encoding="UTF-8" standalone="no"?>
<svg width="842px" height="638px" viewBox="0 0 842 638" version="1.1" xmlns="http://www.w3.org/2000/svg" xmlns:xlink="http://www.w3.org/1999/xlink">
    <!-- Generator: Sketch 39.1 (31720) - http://www.bohemiancoding.com/sketch -->
    <title>Group 4</title>
    <desc>Created with Sketch.</desc>
    <defs>
        <linearGradient x1="27.2865812%" y1="21.2440028%" x2="102.900232%" y2="107.354806%" id="linearGradient-1">
            <stop stop-color="#BCDEF8" stop-opacity="0.14" offset="0%"></stop>
            <stop stop-color="#BCDDF9" stop-opacity="0.2" offset="100%"></stop>
        </linearGradient>
    </defs>
    <g id="Page-1" stroke="none" stroke-width="1" fill="none" fill-rule="evenodd" opacity="0.8">
        <g id="天气_晴-copy-13" transform="translate(1.000000, 2.000000)" fill="url(#linearGradient-1)">
            <g id="Group-4" transform="translate(-804.000000, -995.000000)">
                <g id="Group-10" transform="translate(242.000000, 240.000000)">
                    <path d="M701,1385.48911 C1087.66777,1385.48911 1401.12393,1075.45117 1401.12393,693 C1401.12393,310.548828 1087.66777,0.510894908 701,0.510894908 C314.332228,0.510894908 0.876065899,310.548828 0.876065899,693 C0.876065899,1075.45117 314.332228,1385.48911 701,1385.48911 Z" id="Oval-2"></path>
                </g>
            </g>
        </g>
    </g>
</svg>