<?xml version="1.0" encoding="UTF-8" standalone="no"?>
<svg width="5px" height="91px" viewBox="0 0 5 91" version="1.1" xmlns="http://www.w3.org/2000/svg" xmlns:xlink="http://www.w3.org/1999/xlink">
    <!-- Generator: Sketch 39.1 (31720) - http://www.bohemiancoding.com/sketch -->
    <title>Group 5</title>
    <desc>Created with Sketch.</desc>
    <defs></defs>
    <g id="Page-1" stroke="none" stroke-width="1" fill="none" fill-rule="evenodd">
        <g id="天气_雷震雨伴有冰块" transform="translate(-917.000000, -270.000000)" fill="#7C8E9D">
            <g id="背景" transform="translate(-538.000000, -1182.000000)">
                <g id="Group-5" transform="translate(1455.000000, 1452.000000)">
                    <rect id="Rectangle-6" x="0" y="0" width="5" height="91"></rect>
                </g>
            </g>
        </g>
    </g>
</svg>