-- Merging decision tree log ---
manifest
ADDED from /home/caizhongting/project/N_n8996_la2.0.1_dev/packages/apps/demo/AndroidManifest.xml:18:1-175:12
	xmlns:android
		ADDED from /home/caizhongting/project/N_n8996_la2.0.1_dev/packages/apps/demo/AndroidManifest.xml:18:11-69
	package
		ADDED from /home/caizhongting/project/N_n8996_la2.0.1_dev/packages/apps/demo/AndroidManifest.xml:19:5-27
		INJECTED from /home/caizhongting/project/N_n8996_la2.0.1_dev/packages/apps/demo/AndroidManifest.xml
		INJECTED from /home/caizhongting/project/N_n8996_la2.0.1_dev/packages/apps/demo/AndroidManifest.xml
	android:versionName
		INJECTED from /home/caizhongting/project/N_n8996_la2.0.1_dev/packages/apps/demo/AndroidManifest.xml
		INJECTED from /home/caizhongting/project/N_n8996_la2.0.1_dev/packages/apps/demo/AndroidManifest.xml
	android:versionCode
		INJECTED from /home/caizhongting/project/N_n8996_la2.0.1_dev/packages/apps/demo/AndroidManifest.xml
		INJECTED from /home/caizhongting/project/N_n8996_la2.0.1_dev/packages/apps/demo/AndroidManifest.xml
application
ADDED from /home/caizhongting/project/N_n8996_la2.0.1_dev/packages/apps/demo/AndroidManifest.xml:21:5-173:19
	android:label
		ADDED from /home/caizhongting/project/N_n8996_la2.0.1_dev/packages/apps/demo/AndroidManifest.xml:23:9-41
	android:icon
		ADDED from /home/caizhongting/project/N_n8996_la2.0.1_dev/packages/apps/demo/AndroidManifest.xml:22:9-38
	android:theme
		ADDED from /home/caizhongting/project/N_n8996_la2.0.1_dev/packages/apps/demo/AndroidManifest.xml:24:9-40
activity#com.mst.demo.MainActivity
ADDED from /home/caizhongting/project/N_n8996_la2.0.1_dev/packages/apps/demo/AndroidManifest.xml:25:9-35:20
	android:windowSoftInputMode
		ADDED from /home/caizhongting/project/N_n8996_la2.0.1_dev/packages/apps/demo/AndroidManifest.xml:28:13-60
	android:label
		ADDED from /home/caizhongting/project/N_n8996_la2.0.1_dev/packages/apps/demo/AndroidManifest.xml:27:13-45
	android:name
		ADDED from /home/caizhongting/project/N_n8996_la2.0.1_dev/packages/apps/demo/AndroidManifest.xml:26:13-41
intent-filter#android.intent.action.MAIN+android.intent.category.APP_CALCULATOR+android.intent.category.LAUNCHER
ADDED from /home/caizhongting/project/N_n8996_la2.0.1_dev/packages/apps/demo/AndroidManifest.xml:29:13-34:29
action#android.intent.action.MAIN
ADDED from /home/caizhongting/project/N_n8996_la2.0.1_dev/packages/apps/demo/AndroidManifest.xml:30:17-69
	android:name
		ADDED from /home/caizhongting/project/N_n8996_la2.0.1_dev/packages/apps/demo/AndroidManifest.xml:30:25-66
category#android.intent.category.LAUNCHER
ADDED from /home/caizhongting/project/N_n8996_la2.0.1_dev/packages/apps/demo/AndroidManifest.xml:32:17-77
	android:name
		ADDED from /home/caizhongting/project/N_n8996_la2.0.1_dev/packages/apps/demo/AndroidManifest.xml:32:27-74
category#android.intent.category.APP_CALCULATOR
ADDED from /home/caizhongting/project/N_n8996_la2.0.1_dev/packages/apps/demo/AndroidManifest.xml:33:17-83
	android:name
		ADDED from /home/caizhongting/project/N_n8996_la2.0.1_dev/packages/apps/demo/AndroidManifest.xml:33:27-80
activity#com.mst.demo.dialog.DialogDemoActivity
ADDED from /home/caizhongting/project/N_n8996_la2.0.1_dev/packages/apps/demo/AndroidManifest.xml:38:9-46:20
	android:label
		ADDED from /home/caizhongting/project/N_n8996_la2.0.1_dev/packages/apps/demo/AndroidManifest.xml:40:13-48
	android:name
		ADDED from /home/caizhongting/project/N_n8996_la2.0.1_dev/packages/apps/demo/AndroidManifest.xml:39:13-66
intent-filter#android.intent.action.MAIN+com.mst.demo.intent.category.SAMPLE_CODE
ADDED from /home/caizhongting/project/N_n8996_la2.0.1_dev/packages/apps/demo/AndroidManifest.xml:41:13-45:29
category#com.mst.demo.intent.category.SAMPLE_CODE
ADDED from /home/caizhongting/project/N_n8996_la2.0.1_dev/packages/apps/demo/AndroidManifest.xml:44:17-85
	android:name
		ADDED from /home/caizhongting/project/N_n8996_la2.0.1_dev/packages/apps/demo/AndroidManifest.xml:44:27-82
activity#com.mst.demo.dialog.MyDialogActivity
ADDED from /home/caizhongting/project/N_n8996_la2.0.1_dev/packages/apps/demo/AndroidManifest.xml:47:9-56:20
	android:label
		ADDED from /home/caizhongting/project/N_n8996_la2.0.1_dev/packages/apps/demo/AndroidManifest.xml:49:13-44
	android:theme
		ADDED from /home/caizhongting/project/N_n8996_la2.0.1_dev/packages/apps/demo/AndroidManifest.xml:50:13-76
	android:name
		ADDED from /home/caizhongting/project/N_n8996_la2.0.1_dev/packages/apps/demo/AndroidManifest.xml:48:13-64
activity#com.mst.demo.MaterialWidgetActivity
ADDED from /home/caizhongting/project/N_n8996_la2.0.1_dev/packages/apps/demo/AndroidManifest.xml:57:9-59:61
	android:theme
		ADDED from /home/caizhongting/project/N_n8996_la2.0.1_dev/packages/apps/demo/AndroidManifest.xml:59:13-58
	android:name
		ADDED from /home/caizhongting/project/N_n8996_la2.0.1_dev/packages/apps/demo/AndroidManifest.xml:58:13-63
activity#com.mst.demo.SubActivity
ADDED from /home/caizhongting/project/N_n8996_la2.0.1_dev/packages/apps/demo/AndroidManifest.xml:60:9-63:20
	android:label
		ADDED from /home/caizhongting/project/N_n8996_la2.0.1_dev/packages/apps/demo/AndroidManifest.xml:62:13-40
	android:name
		ADDED from /home/caizhongting/project/N_n8996_la2.0.1_dev/packages/apps/demo/AndroidManifest.xml:61:13-40
activity#com.mst.demo.preference.PreferenceWithHeaders
ADDED from /home/caizhongting/project/N_n8996_la2.0.1_dev/packages/apps/demo/AndroidManifest.xml:65:9-73:20
	android:label
		ADDED from /home/caizhongting/project/N_n8996_la2.0.1_dev/packages/apps/demo/AndroidManifest.xml:67:13-50
	android:name
		ADDED from /home/caizhongting/project/N_n8996_la2.0.1_dev/packages/apps/demo/AndroidManifest.xml:66:13-73
activity#com.mst.demo.preference.PreferenceDemoActivity
ADDED from /home/caizhongting/project/N_n8996_la2.0.1_dev/packages/apps/demo/AndroidManifest.xml:75:10-83:20
	android:label
		ADDED from /home/caizhongting/project/N_n8996_la2.0.1_dev/packages/apps/demo/AndroidManifest.xml:77:13-39
	android:name
		ADDED from /home/caizhongting/project/N_n8996_la2.0.1_dev/packages/apps/demo/AndroidManifest.xml:76:13-74
activity#com.mst.demo.text.TextStyleActivity
ADDED from /home/caizhongting/project/N_n8996_la2.0.1_dev/packages/apps/demo/AndroidManifest.xml:86:9-94:20
	android:label
		ADDED from /home/caizhongting/project/N_n8996_la2.0.1_dev/packages/apps/demo/AndroidManifest.xml:88:13-52
	android:name
		ADDED from /home/caizhongting/project/N_n8996_la2.0.1_dev/packages/apps/demo/AndroidManifest.xml:87:13-63
activity#com.mst.demo.list.ListItemStyleActivity
ADDED from /home/caizhongting/project/N_n8996_la2.0.1_dev/packages/apps/demo/AndroidManifest.xml:96:9-104:20
	android:label
		ADDED from /home/caizhongting/project/N_n8996_la2.0.1_dev/packages/apps/demo/AndroidManifest.xml:98:13-51
	android:name
		ADDED from /home/caizhongting/project/N_n8996_la2.0.1_dev/packages/apps/demo/AndroidManifest.xml:97:13-67
activity#com.mst.demo.color.ColorStyleActivity
ADDED from /home/caizhongting/project/N_n8996_la2.0.1_dev/packages/apps/demo/AndroidManifest.xml:106:9-114:20
	android:label
		ADDED from /home/caizhongting/project/N_n8996_la2.0.1_dev/packages/apps/demo/AndroidManifest.xml:108:13-47
	android:name
		ADDED from /home/caizhongting/project/N_n8996_la2.0.1_dev/packages/apps/demo/AndroidManifest.xml:107:13-65
activity#com.mst.demo.material.MaterialWidgetActivity
ADDED from /home/caizhongting/project/N_n8996_la2.0.1_dev/packages/apps/demo/AndroidManifest.xml:115:9-123:20
	android:label
		ADDED from /home/caizhongting/project/N_n8996_la2.0.1_dev/packages/apps/demo/AndroidManifest.xml:117:13-42
	android:name
		ADDED from /home/caizhongting/project/N_n8996_la2.0.1_dev/packages/apps/demo/AndroidManifest.xml:116:13-72
activity#com.mst.demo.indexbar.IndexBarActivity
ADDED from /home/caizhongting/project/N_n8996_la2.0.1_dev/packages/apps/demo/AndroidManifest.xml:125:9-134:20
	android:label
		ADDED from /home/caizhongting/project/N_n8996_la2.0.1_dev/packages/apps/demo/AndroidManifest.xml:127:13-45
	android:name
		ADDED from /home/caizhongting/project/N_n8996_la2.0.1_dev/packages/apps/demo/AndroidManifest.xml:126:13-66
activity#com.mst.demo.sliderview.SliderViewActivity
ADDED from /home/caizhongting/project/N_n8996_la2.0.1_dev/packages/apps/demo/AndroidManifest.xml:135:2-144:20
	android:label
		ADDED from /home/caizhongting/project/N_n8996_la2.0.1_dev/packages/apps/demo/AndroidManifest.xml:137:13-44
	android:name
		ADDED from /home/caizhongting/project/N_n8996_la2.0.1_dev/packages/apps/demo/AndroidManifest.xml:136:13-70
activity#com.mst.demo.MstActivityDemo
ADDED from /home/caizhongting/project/N_n8996_la2.0.1_dev/packages/apps/demo/AndroidManifest.xml:146:3-156:20
	android:label
		ADDED from /home/caizhongting/project/N_n8996_la2.0.1_dev/packages/apps/demo/AndroidManifest.xml:148:13-44
	android:theme
		ADDED from /home/caizhongting/project/N_n8996_la2.0.1_dev/packages/apps/demo/AndroidManifest.xml:149:13-53
	android:name
		ADDED from /home/caizhongting/project/N_n8996_la2.0.1_dev/packages/apps/demo/AndroidManifest.xml:147:13-56
activity#com.mst.demo.material.MaterialDemoActivity
ADDED from /home/caizhongting/project/N_n8996_la2.0.1_dev/packages/apps/demo/AndroidManifest.xml:158:9-161:20
	android:windowSoftInputMode
		ADDED from /home/caizhongting/project/N_n8996_la2.0.1_dev/packages/apps/demo/AndroidManifest.xml:160:13-52
	android:name
		ADDED from /home/caizhongting/project/N_n8996_la2.0.1_dev/packages/apps/demo/AndroidManifest.xml:159:13-70
activity#com.mst.demo.button.Buttons
ADDED from /home/caizhongting/project/N_n8996_la2.0.1_dev/packages/apps/demo/AndroidManifest.xml:163:9-171:20
	android:label
		ADDED from /home/caizhongting/project/N_n8996_la2.0.1_dev/packages/apps/demo/AndroidManifest.xml:165:13-47
	android:name
		ADDED from /home/caizhongting/project/N_n8996_la2.0.1_dev/packages/apps/demo/AndroidManifest.xml:164:13-55
uses-sdk
INJECTED from /home/caizhongting/project/N_n8996_la2.0.1_dev/packages/apps/demo/AndroidManifest.xml reason: use-sdk injection requested
	android:targetSdkVersion
		INJECTED from /home/caizhongting/project/N_n8996_la2.0.1_dev/packages/apps/demo/AndroidManifest.xml
		INJECTED from /home/caizhongting/project/N_n8996_la2.0.1_dev/packages/apps/demo/AndroidManifest.xml
	android:minSdkVersion
		INJECTED from /home/caizhongting/project/N_n8996_la2.0.1_dev/packages/apps/demo/AndroidManifest.xml
		INJECTED from /home/caizhongting/project/N_n8996_la2.0.1_dev/packages/apps/demo/AndroidManifest.xml
